{
    "summary" : {
        "type" : "TH1F",
        "xAxis" : {
            "title" : "Summary",
            "labels" : [
                "N_{Events}",
                "N_{$TESTTYPEs}^{All}",
                "N_{$TESTTYPEs}^{Selected}",
                "N_{$TESTTYPEs}^{Matched}",
                "N_{$REFTYPEs}^{All}",
                "N_{$REFTYPEs}^{Selected}",
                "N_{$REFTYPEs}^{Matched}"
            ]
        },
        "yAxis" : { "title" : "Counts" }
    },
    "summary_trigNav" : {
        "type" : "TH1F",
        "xAxis" : {
            "title" : "Summary",
            "labels" : [
                "N_{Events}^{Triggered}",
                "N_{RoIs}",
                "N_{$TESTTYPEs}^{All}",
                "N_{$TESTTYPEs}^{Selected}",
                "N_{$TESTTYPEs}^{Selected in RoI}",
                "N_{$TESTTYPEs}^{Matched}",
                "N_{$REFTYPEs}^{All}",
                "N_{$REFTYPEs}^{Selected}",
                "N_{$REFTYPEs}^{Selected in RoI}",
                "N_{$REFTYPEs}^{Matched}"
            ]
        },
        "yAxis" : { "title" : "Counts" }
    }
}
